<svg width="12" height="8" viewBox="0 0 12 8" fill="none" xmlns="http://www.w3.org/2000/svg">
<path fill-rule="evenodd" clip-rule="evenodd" d="M1.99998 0.704102L0.939324 1.76476L6.46965 7.29509L12 1.76476L10.9393 0.704102L6.46965 5.17377L1.99998 0.704102Z" fill="#2F140D"/>
</svg>
