<svg width="17" height="18" viewBox="0 0 17 18" fill="none" xmlns="http://www.w3.org/2000/svg">
<path d="M5.46297 0.129999C6.30297 1.55 6.87297 3.05 7.17297 4.63C7.47297 6.21 7.50297 7.77 7.26297 9.31C7.02297 10.85 6.52297 12.33 5.76297 13.75C5.00297 15.17 3.99297 16.43 2.73297 17.53L1.11297 16.48C0.812969 16.3 0.672969 16.07 0.692969 15.79C0.732969 15.49 0.832969 15.25 0.992969 15.07C1.51297 14.43 1.95297 13.66 2.31297 12.76C2.69297 11.84 2.93297 10.86 3.03297 9.82C3.15297 8.76 3.10297 7.67 2.88297 6.55C2.68297 5.43 2.27297 4.35 1.65297 3.31C1.39297 2.89 1.31297 2.52 1.41297 2.2C1.53297 1.86 1.78297 1.61 2.16297 1.45L5.46297 0.129999ZM14.583 0.129999C15.423 1.55 15.993 3.05 16.293 4.63C16.593 6.21 16.623 7.77 16.383 9.31C16.143 10.85 15.643 12.33 14.883 13.75C14.123 15.17 13.113 16.43 11.853 17.53L10.233 16.48C9.93297 16.3 9.79297 16.07 9.81297 15.79C9.85297 15.49 9.95297 15.25 10.113 15.07C10.633 14.43 11.073 13.66 11.433 12.76C11.813 11.84 12.053 10.86 12.153 9.82C12.273 8.76 12.223 7.67 12.003 6.55C11.803 5.43 11.393 4.35 10.773 3.31C10.513 2.89 10.433 2.52 10.533 2.2C10.653 1.86 10.903 1.61 11.283 1.45L14.583 0.129999Z" fill="#F6D3C4"/>
</svg>
